// Jest Snapshot v1, https://goo.gl/fbAQLP

exports[`should render ExpenseList with expenses 1`] = `
<div>
  <h3>
    Expense List
  </h3>
  <ul>
    <ExpenseListItem
      amount={112}
      createdAt={86400}
      description="Cheese"
      id="1"
      key="1"
      note=""
    />
    <ExpenseListItem
      amount={2150}
      createdAt={-345513600}
      description="Crackers"
      id="2"
      key="2"
      note=""
    />
    <ExpenseListItem
      amount={265}
      createdAt={345686400}
      description="Salt"
      id="3"
      key="3"
      note=""
    />
  </ul>
</div>
`;

exports[`should render ExpenseList with no expenses message 1`] = `
<div>
  <h3>
    Expense List
  </h3>
  <ul>
    <li>
      No expenses found
    </li>
  </ul>
</div>
`;
