// Jest Snapshot v1, https://goo.gl/fbAQLP

exports[`should render ExpenseListItem with an expense 1`] = `
<li>
  Cheese
  : 
  $1.12
  , created on 
  January 1st, 1970 @ 00:01
  <span>
    <Link
      replace={false}
      to="/edit/1"
    >
      Edit
    </Link>
  </span>
</li>
`;
